<?xml version="1.0" encoding="UTF-8" standalone="no"?>
<!DOCTYPE svg PUBLIC "-//W3C//DTD SVG 1.1//EN"
 "http://www.w3.org/Graphics/SVG/1.1/DTD/svg11.dtd">
<!-- Generated by graphviz version 2.38.0 (20140413.2041)
 -->
<!-- Title: controllers_diagram Pages: 1 -->
<svg width="1795pt" height="1430pt"
 viewBox="0.00 0.00 1794.96 1430.17" xmlns="http://www.w3.org/2000/svg" xmlns:xlink="http://www.w3.org/1999/xlink">
<g id="graph0" class="graph" transform="scale(1 1) rotate(0) translate(864.674 687.971)">
<title>controllers_diagram</title>
<polygon fill="none" stroke="none" points="-864.674,742.198 -864.674,-687.971 930.282,-687.971 930.282,742.198 -864.674,742.198"/>
<!-- _diagram_info -->
<g id="node1" class="node"><title>_diagram_info</title>
<text text-anchor="start" x="377.312" y="432.9" font-family="Times,serif" font-size="13.00">Controllers diagram</text>
<text text-anchor="start" x="377.312" y="445.9" font-family="Times,serif" font-size="13.00">Date: Oct 04 2016 &#45; 06:11</text>
<text text-anchor="start" x="377.312" y="458.9" font-family="Times,serif" font-size="13.00">Migration version: 20160925172612</text>
<text text-anchor="start" x="377.312" y="471.9" font-family="Times,serif" font-size="13.00">Generated by RailRoady 1.5.2</text>
<text text-anchor="start" x="377.312" y="484.9" font-family="Times,serif" font-size="13.00">http://railroady.prestonlee.com</text>
</g>
<!-- Admin::ApplicationController -->
<g id="node2" class="node"><title>Admin::ApplicationController</title>
<ellipse fill="none" stroke="black" cx="-194.201" cy="720.198" rx="117.876" ry="18"/>
<text text-anchor="middle" x="-194.201" y="724.398" font-family="Times,serif" font-size="14.00">Admin::ApplicationController</text>
</g>
<!-- Admin::ProjectsController -->
<g id="node3" class="node"><title>Admin::ProjectsController</title>
<ellipse fill="none" stroke="black" cx="262.113" cy="718.883" rx="104.354" ry="18"/>
<text text-anchor="middle" x="262.113" y="723.083" font-family="Times,serif" font-size="14.00">Admin::ProjectsController</text>
</g>
<!-- Admin::ApplicationController&#45;&gt;Admin::ProjectsController -->
<g id="edge2" class="edge"><title>Admin::ApplicationController&#45;&gt;Admin::ProjectsController</title>
<path fill="none" stroke="black" d="M-76.3923,719.858C-4.03726,719.65 87.8205,719.385 157.585,719.184"/>
</g>
<!-- Admin::RequestsController -->
<g id="node4" class="node"><title>Admin::RequestsController</title>
<ellipse fill="none" stroke="black" cx="-716.82" cy="682.826" rx="107.737" ry="18"/>
<text text-anchor="middle" x="-716.82" y="687.026" font-family="Times,serif" font-size="14.00">Admin::RequestsController</text>
</g>
<!-- Admin::ApplicationController&#45;&gt;Admin::RequestsController -->
<g id="edge3" class="edge"><title>Admin::ApplicationController&#45;&gt;Admin::RequestsController</title>
<path fill="none" stroke="black" d="M-300.906,712.567C-393.603,705.939 -526.832,696.412 -617.34,689.94"/>
</g>
<!-- ApplicationController -->
<g id="node5" class="node"><title>ApplicationController</title>
<ellipse fill="none" stroke="black" cx="-126.433" cy="39.7625" rx="88.417" ry="18"/>
<text text-anchor="middle" x="-126.433" y="43.9625" font-family="Times,serif" font-size="14.00">ApplicationController</text>
</g>
<!-- ApplicationController&#45;&gt;Admin::ApplicationController -->
<g id="edge1" class="edge"><title>ApplicationController&#45;&gt;Admin::ApplicationController</title>
<path fill="none" stroke="black" d="M-141.825,57.703C-170.25,92.3254 -229.569,171.992 -245.856,251.62 -281.281,424.816 -220.152,639.331 -200.185,702.138"/>
</g>
<!-- DashboardController -->
<g id="node6" class="node"><title>DashboardController</title>
<ellipse fill="none" stroke="black" cx="118.552" cy="160.548" rx="84.5341" ry="18"/>
<text text-anchor="middle" x="118.552" y="164.748" font-family="Times,serif" font-size="14.00">DashboardController</text>
</g>
<!-- ApplicationController&#45;&gt;DashboardController -->
<g id="edge4" class="edge"><title>ApplicationController&#45;&gt;DashboardController</title>
<path fill="none" stroke="black" d="M-92.6257,56.4304C-45.8968,79.4693 37.9456,120.806 84.699,143.857"/>
</g>
<!-- ErrorsController -->
<g id="node7" class="node"><title>ErrorsController</title>
<ellipse fill="none" stroke="black" cx="-396.649" cy="47.8596" rx="68.6133" ry="18"/>
<text text-anchor="middle" x="-396.649" y="52.0596" font-family="Times,serif" font-size="14.00">ErrorsController</text>
</g>
<!-- ApplicationController&#45;&gt;ErrorsController -->
<g id="edge5" class="edge"><title>ApplicationController&#45;&gt;ErrorsController</title>
<path fill="none" stroke="black" d="M-213.791,42.3802C-250.952,43.4938 -293.644,44.773 -328.426,45.8153"/>
</g>
<!-- HomepageController -->
<g id="node8" class="node"><title>HomepageController</title>
<ellipse fill="none" stroke="black" cx="-775.911" cy="246.028" rx="84.5255" ry="18"/>
<text text-anchor="middle" x="-775.911" y="250.228" font-family="Times,serif" font-size="14.00">HomepageController</text>
</g>
<!-- ApplicationController&#45;&gt;HomepageController -->
<g id="edge6" class="edge"><title>ApplicationController&#45;&gt;HomepageController</title>
<path fill="none" stroke="black" d="M-174.19,54.9297C-294.445,93.1209 -608.665,192.913 -728.522,230.977"/>
</g>
<!-- JoinController -->
<g id="node9" class="node"><title>JoinController</title>
<ellipse fill="none" stroke="black" cx="363.063" cy="338.708" rx="61.3978" ry="18"/>
<text text-anchor="middle" x="363.063" y="342.908" font-family="Times,serif" font-size="14.00">JoinController</text>
</g>
<!-- ApplicationController&#45;&gt;JoinController -->
<g id="edge7" class="edge"><title>ApplicationController&#45;&gt;JoinController</title>
<path fill="none" stroke="black" d="M-105.649,57.2783C-76.0483,81.8281 -19.5861,127.208 32.1862,160.641 137.13,228.41 270.218,294.432 330.62,323.399"/>
</g>
<!-- PostsController -->
<g id="node10" class="node"><title>PostsController</title>
<ellipse fill="none" stroke="black" cx="-368.123" cy="373.119" rx="65.2736" ry="18"/>
<text text-anchor="middle" x="-368.123" y="377.319" font-family="Times,serif" font-size="14.00">PostsController</text>
</g>
<!-- ApplicationController&#45;&gt;PostsController -->
<g id="edge8" class="edge"><title>ApplicationController&#45;&gt;PostsController</title>
<path fill="none" stroke="black" d="M-139.427,57.6852C-181.392,115.567 -313.008,297.1 -355.064,355.108"/>
</g>
<!-- ProjectsController -->
<g id="node11" class="node"><title>ProjectsController</title>
<ellipse fill="none" stroke="black" cx="41.9629" cy="428.458" rx="74.8948" ry="18"/>
<text text-anchor="middle" x="41.9629" y="432.658" font-family="Times,serif" font-size="14.00">ProjectsController</text>
</g>
<!-- ApplicationController&#45;&gt;ProjectsController -->
<g id="edge9" class="edge"><title>ApplicationController&#45;&gt;ProjectsController</title>
<path fill="none" stroke="black" d="M-115.366,57.8987C-93.7744,93.8237 -45.4177,177 -14.1932,251.397 9.51923,307.895 28.9667,378.061 37.4182,410.486"/>
</g>
<!-- RequestAcceptantsController -->
<g id="node12" class="node"><title>RequestAcceptantsController</title>
<ellipse fill="none" stroke="black" cx="-130.025" cy="251.509" rx="114.467" ry="18"/>
<text text-anchor="middle" x="-130.025" y="255.709" font-family="Times,serif" font-size="14.00">RequestAcceptantsController</text>
</g>
<!-- ApplicationController&#45;&gt;RequestAcceptantsController -->
<g id="edge10" class="edge"><title>ApplicationController&#45;&gt;RequestAcceptantsController</title>
<path fill="none" stroke="black" d="M-126.739,57.8159C-127.418,97.8207 -129.041,193.539 -129.719,233.501"/>
</g>
<!-- SlackController -->
<g id="node13" class="node"><title>SlackController</title>
<ellipse fill="none" stroke="black" cx="-779.131" cy="-145.823" rx="66.208" ry="18"/>
<text text-anchor="middle" x="-779.131" y="-141.623" font-family="Times,serif" font-size="14.00">SlackController</text>
</g>
<!-- ApplicationController&#45;&gt;SlackController -->
<g id="edge11" class="edge"><title>ApplicationController&#45;&gt;SlackController</title>
<path fill="none" stroke="black" d="M-177.921,25.1225C-301.791,-10.0983 -614.902,-99.1268 -733.05,-132.72"/>
</g>
<!-- UsersController -->
<g id="node20" class="node"><title>UsersController</title>
<ellipse fill="none" stroke="black" cx="-390.231" cy="-282.5" rx="66.6925" ry="18"/>
<text text-anchor="middle" x="-390.231" y="-278.3" font-family="Times,serif" font-size="14.00">UsersController</text>
</g>
<!-- ApplicationController&#45;&gt;UsersController -->
<g id="edge18" class="edge"><title>ApplicationController&#45;&gt;UsersController</title>
<path fill="none" stroke="black" d="M-140.991,21.9773C-187.113,-34.3657 -329.659,-208.503 -375.717,-264.77"/>
</g>
<!-- DeviseController -->
<g id="node27" class="node"><title>DeviseController</title>
<ellipse fill="none" stroke="black" cx="81.1894" cy="-51.5166" rx="71.0272" ry="18"/>
<text text-anchor="middle" x="81.1894" y="-47.3166" font-family="Times,serif" font-size="14.00">DeviseController</text>
</g>
<!-- ApplicationController&#45;&gt;DeviseController -->
<g id="edge25" class="edge"><title>ApplicationController&#45;&gt;DeviseController</title>
<path fill="none" stroke="black" d="M-88.8338,23.2325C-50.6215,6.43284 8.13337,-19.3982 45.604,-35.8718"/>
</g>
<!-- Users::ConfirmationsController -->
<g id="node14" class="node"><title>Users::ConfirmationsController</title>
<ellipse fill="none" stroke="black" cx="756.956" cy="-599.846" rx="122.237" ry="18"/>
<text text-anchor="middle" x="756.956" y="-595.646" font-family="Times,serif" font-size="14.00">Users::ConfirmationsController</text>
</g>
<!-- Users::OmniauthCallbacksController -->
<g id="node15" class="node"><title>Users::OmniauthCallbacksController</title>
<ellipse fill="none" stroke="black" cx="249.074" cy="-659.189" rx="141.506" ry="18"/>
<text text-anchor="middle" x="249.074" y="-654.989" font-family="Times,serif" font-size="14.00">Users::OmniauthCallbacksController</text>
</g>
<!-- Users::PasswordsController -->
<g id="node16" class="node"><title>Users::PasswordsController</title>
<ellipse fill="none" stroke="black" cx="-242.277" cy="-665.971" rx="108.706" ry="18"/>
<text text-anchor="middle" x="-242.277" y="-661.771" font-family="Times,serif" font-size="14.00">Users::PasswordsController</text>
</g>
<!-- Users::RegistrationsController -->
<g id="node17" class="node"><title>Users::RegistrationsController</title>
<ellipse fill="none" stroke="black" cx="808.102" cy="-128.014" rx="118.361" ry="18"/>
<text text-anchor="middle" x="808.102" y="-123.814" font-family="Times,serif" font-size="14.00">Users::RegistrationsController</text>
</g>
<!-- Users::SessionsController -->
<g id="node18" class="node"><title>Users::SessionsController</title>
<ellipse fill="none" stroke="black" cx="756.378" cy="665.757" rx="101.957" ry="18"/>
<text text-anchor="middle" x="756.378" y="669.957" font-family="Times,serif" font-size="14.00">Users::SessionsController</text>
</g>
<!-- Users::UnlocksController -->
<g id="node19" class="node"><title>Users::UnlocksController</title>
<ellipse fill="none" stroke="black" cx="-736.867" cy="-602.483" rx="100.971" ry="18"/>
<text text-anchor="middle" x="-736.867" y="-598.283" font-family="Times,serif" font-size="14.00">Users::UnlocksController</text>
</g>
<!-- Devise::ConfirmationsController -->
<g id="node21" class="node"><title>Devise::ConfirmationsController</title>
<ellipse fill="none" stroke="black" cx="430.09" cy="-279.762" rx="126.571" ry="18"/>
<text text-anchor="middle" x="430.09" y="-275.562" font-family="Times,serif" font-size="14.00">Devise::ConfirmationsController</text>
</g>
<!-- Devise::ConfirmationsController&#45;&gt;Users::ConfirmationsController -->
<g id="edge12" class="edge"><title>Devise::ConfirmationsController&#45;&gt;Users::ConfirmationsController</title>
<path fill="none" stroke="black" d="M448.6,-297.888C506.132,-354.226 681.395,-525.852 738.649,-581.918"/>
</g>
<!-- Devise::OmniauthCallbacksController -->
<g id="node22" class="node"><title>Devise::OmniauthCallbacksController</title>
<ellipse fill="none" stroke="black" cx="164.074" cy="-252.179" rx="146.34" ry="18"/>
<text text-anchor="middle" x="164.074" y="-247.979" font-family="Times,serif" font-size="14.00">Devise::OmniauthCallbacksController</text>
</g>
<!-- Devise::OmniauthCallbacksController&#45;&gt;Users::OmniauthCallbacksController -->
<g id="edge13" class="edge"><title>Devise::OmniauthCallbacksController&#45;&gt;Users::OmniauthCallbacksController</title>
<path fill="none" stroke="black" d="M167.836,-270.193C181.877,-337.423 231.131,-573.268 245.259,-640.921"/>
</g>
<!-- Devise::PasswordsController -->
<g id="node23" class="node"><title>Devise::PasswordsController</title>
<ellipse fill="none" stroke="black" cx="-137.547" cy="-179.92" rx="113.041" ry="18"/>
<text text-anchor="middle" x="-137.547" y="-175.72" font-family="Times,serif" font-size="14.00">Devise::PasswordsController</text>
</g>
<!-- Devise::PasswordsController&#45;&gt;Users::PasswordsController -->
<g id="edge14" class="edge"><title>Devise::PasswordsController&#45;&gt;Users::PasswordsController</title>
<path fill="none" stroke="black" d="M-141.462,-198.087C-157.986,-274.778 -221.943,-571.601 -238.399,-647.972"/>
</g>
<!-- Devise::RegistrationsController -->
<g id="node24" class="node"><title>Devise::RegistrationsController</title>
<ellipse fill="none" stroke="black" cx="376.353" cy="25.3228" rx="122.695" ry="18"/>
<text text-anchor="middle" x="376.353" y="29.5228" font-family="Times,serif" font-size="14.00">Devise::RegistrationsController</text>
</g>
<!-- Devise::RegistrationsController&#45;&gt;Users::RegistrationsController -->
<g id="edge15" class="edge"><title>Devise::RegistrationsController&#45;&gt;Users::RegistrationsController</title>
<path fill="none" stroke="black" d="M423.379,8.62125C506.539,-20.9132 678.576,-82.0122 761.46,-111.449"/>
</g>
<!-- Devise::SessionsController -->
<g id="node25" class="node"><title>Devise::SessionsController</title>
<ellipse fill="none" stroke="black" cx="766.539" cy="238.94" rx="106.292" ry="18"/>
<text text-anchor="middle" x="766.539" y="243.14" font-family="Times,serif" font-size="14.00">Devise::SessionsController</text>
</g>
<!-- Devise::SessionsController&#45;&gt;Users::SessionsController -->
<g id="edge16" class="edge"><title>Devise::SessionsController&#45;&gt;Users::SessionsController</title>
<path fill="none" stroke="black" d="M766.109,257.007C764.451,326.663 758.482,577.372 756.814,647.447"/>
</g>
<!-- Devise::UnlocksController -->
<g id="node26" class="node"><title>Devise::UnlocksController</title>
<ellipse fill="none" stroke="black" cx="-26.9413" cy="-419.941" rx="105.306" ry="18"/>
<text text-anchor="middle" x="-26.9413" y="-415.741" font-family="Times,serif" font-size="14.00">Devise::UnlocksController</text>
</g>
<!-- Devise::UnlocksController&#45;&gt;Users::UnlocksController -->
<g id="edge17" class="edge"><title>Devise::UnlocksController&#45;&gt;Users::UnlocksController</title>
<path fill="none" stroke="black" d="M-85.3391,-434.957C-219.006,-469.326 -545.9,-553.38 -679.028,-587.611"/>
</g>
<!-- DeviseController&#45;&gt;Devise::ConfirmationsController -->
<g id="edge19" class="edge"><title>DeviseController&#45;&gt;Devise::ConfirmationsController</title>
<path fill="none" stroke="black" d="M107.129,-68.4856C171.405,-110.534 337.572,-219.238 403.023,-262.055"/>
</g>
<!-- DeviseController&#45;&gt;Devise::OmniauthCallbacksController -->
<g id="edge20" class="edge"><title>DeviseController&#45;&gt;Devise::OmniauthCallbacksController</title>
<path fill="none" stroke="black" d="M88.6911,-69.678C104.432,-107.785 140.752,-195.717 156.53,-233.914"/>
</g>
<!-- DeviseController&#45;&gt;Devise::PasswordsController -->
<g id="edge21" class="edge"><title>DeviseController&#45;&gt;Devise::PasswordsController</title>
<path fill="none" stroke="black" d="M52.5934,-68.3032C11.0201,-92.7077 -65.7342,-137.764 -107.895,-162.514"/>
</g>
<!-- DeviseController&#45;&gt;Devise::RegistrationsController -->
<g id="edge22" class="edge"><title>DeviseController&#45;&gt;Devise::RegistrationsController</title>
<path fill="none" stroke="black" d="M130.926,-38.5687C181.94,-25.2884 261.341,-4.61788 315.938,9.59515"/>
</g>
<!-- DeviseController&#45;&gt;Devise::SessionsController -->
<g id="edge23" class="edge"><title>DeviseController&#45;&gt;Devise::SessionsController</title>
<path fill="none" stroke="black" d="M115.441,-35.7374C149.864,-19.9644 204.505,4.8418 252.158,25.4519 427.205,101.16 637.881,186.945 725.359,222.332"/>
</g>
<!-- DeviseController&#45;&gt;Devise::UnlocksController -->
<g id="edge24" class="edge"><title>DeviseController&#45;&gt;Devise::UnlocksController</title>
<path fill="none" stroke="black" d="M74.9125,-69.6537C62.8753,-104.699 35.9961,-184.247 16.306,-252.079 0.61752,-306.124 -15.2272,-370.781 -22.6287,-401.709"/>
</g>
</g>
</svg>
