<?xml version="1.0" encoding="UTF-8" standalone="no"?>
<!DOCTYPE svg PUBLIC "-//W3C//DTD SVG 1.1//EN"
 "http://www.w3.org/Graphics/SVG/1.1/DTD/svg11.dtd">
<!-- Generated by graphviz version 2.38.0 (20140413.2041)
 -->
<!-- Title: controllers_diagram Pages: 1 -->
<svg width="1755pt" height="1984pt"
 viewBox="0.00 0.00 1755.49 1983.63" xmlns="http://www.w3.org/2000/svg" xmlns:xlink="http://www.w3.org/1999/xlink">
<g id="graph0" class="graph" transform="scale(1 1) rotate(0) translate(843.799 999.937)">
<title>controllers_diagram</title>
<polygon fill="none" stroke="none" points="-843.799,983.698 -843.799,-999.937 911.688,-999.937 911.688,983.698 -843.799,983.698"/>
<!-- _diagram_info -->
<g id="node1" class="node"><title>_diagram_info</title>
<text text-anchor="start" x="708.312" y="-619.1" font-family="Times,serif" font-size="13.00">Controllers diagram</text>
<text text-anchor="start" x="708.312" y="-606.1" font-family="Times,serif" font-size="13.00">Date: Oct 04 2016 &#45; 06:11</text>
<text text-anchor="start" x="708.312" y="-593.1" font-family="Times,serif" font-size="13.00">Migration version: 20160925172612</text>
<text text-anchor="start" x="708.312" y="-580.1" font-family="Times,serif" font-size="13.00">Generated by RailRoady 1.5.2</text>
<text text-anchor="start" x="708.312" y="-567.1" font-family="Times,serif" font-size="13.00">http://railroady.prestonlee.com</text>
</g>
<!-- Admin::ApplicationController -->
<g id="node2" class="node"><title>Admin::ApplicationController</title>
<path fill="none" stroke="black" d="M-315.935,921.547C-315.935,921.547 -153.624,921.547 -153.624,921.547 -147.624,921.547 -141.624,915.547 -141.624,909.547 -141.624,909.547 -141.624,827.547 -141.624,827.547 -141.624,821.547 -147.624,815.547 -153.624,815.547 -153.624,815.547 -315.935,815.547 -315.935,815.547 -321.935,815.547 -327.935,821.547 -327.935,827.547 -327.935,827.547 -327.935,909.547 -327.935,909.547 -327.935,915.547 -321.935,921.547 -315.935,921.547"/>
<text text-anchor="middle" x="-234.78" y="830.747" font-family="Times,serif" font-size="14.00">Admin::ApplicationController</text>
<polyline fill="none" stroke="black" points="-327.935,837.547 -141.624,837.547 "/>
<polyline fill="none" stroke="black" points="-327.935,861.547 -141.624,861.547 "/>
<polyline fill="none" stroke="black" points="-327.935,885.547 -141.624,885.547 "/>
<text text-anchor="start" x="-319.935" y="900.747" font-family="Times,serif" font-size="14.00">_layout</text>
<text text-anchor="start" x="-319.935" y="914.747" font-family="Times,serif" font-size="14.00">verify_is_admin</text>
</g>
<!-- Admin::ProjectsController -->
<g id="node3" class="node"><title>Admin::ProjectsController</title>
<path fill="none" stroke="black" d="M153.666,979.198C153.666,979.198 294.983,979.198 294.983,979.198 300.983,979.198 306.983,973.198 306.983,967.198 306.983,967.198 306.983,761.198 306.983,761.198 306.983,755.198 300.983,749.198 294.983,749.198 294.983,749.198 153.666,749.198 153.666,749.198 147.666,749.198 141.666,755.198 141.666,761.198 141.666,761.198 141.666,967.198 141.666,967.198 141.666,973.198 147.666,979.198 153.666,979.198"/>
<text text-anchor="middle" x="224.324" y="764.398" font-family="Times,serif" font-size="14.00">Admin::ProjectsController</text>
<polyline fill="none" stroke="black" points="141.666,771.198 306.983,771.198 "/>
<text text-anchor="start" x="149.666" y="786.398" font-family="Times,serif" font-size="14.00">update</text>
<text text-anchor="start" x="149.666" y="800.398" font-family="Times,serif" font-size="14.00">create</text>
<text text-anchor="start" x="149.666" y="814.398" font-family="Times,serif" font-size="14.00">edit</text>
<text text-anchor="start" x="149.666" y="828.398" font-family="Times,serif" font-size="14.00">index</text>
<text text-anchor="start" x="149.666" y="842.398" font-family="Times,serif" font-size="14.00">list_users</text>
<text text-anchor="start" x="149.666" y="856.398" font-family="Times,serif" font-size="14.00">new</text>
<text text-anchor="start" x="149.666" y="870.398" font-family="Times,serif" font-size="14.00">pdf</text>
<text text-anchor="start" x="149.666" y="884.398" font-family="Times,serif" font-size="14.00">remove</text>
<text text-anchor="start" x="149.666" y="898.398" font-family="Times,serif" font-size="14.00">show</text>
<text text-anchor="start" x="149.666" y="912.398" font-family="Times,serif" font-size="14.00">add</text>
<polyline fill="none" stroke="black" points="141.666,919.198 306.983,919.198 "/>
<polyline fill="none" stroke="black" points="141.666,943.198 306.983,943.198 "/>
<text text-anchor="start" x="149.666" y="958.398" font-family="Times,serif" font-size="14.00">_layout</text>
<text text-anchor="start" x="149.666" y="972.398" font-family="Times,serif" font-size="14.00">project_params</text>
</g>
<!-- Admin::ApplicationController&#45;&gt;Admin::ProjectsController -->
<g id="edge2" class="edge"><title>Admin::ApplicationController&#45;&gt;Admin::ProjectsController</title>
<path fill="none" stroke="black" d="M-141.596,867.664C-58.6428,866.878 61.5811,865.739 141.298,864.984"/>
</g>
<!-- Admin::RequestsController -->
<g id="node4" class="node"><title>Admin::RequestsController</title>
<path fill="none" stroke="black" d="M-796.552,910.916C-796.552,910.916 -649.786,910.916 -649.786,910.916 -643.786,910.916 -637.786,904.916 -637.786,898.916 -637.786,898.916 -637.786,762.916 -637.786,762.916 -637.786,756.916 -643.786,750.916 -649.786,750.916 -649.786,750.916 -796.552,750.916 -796.552,750.916 -802.552,750.916 -808.552,756.916 -808.552,762.916 -808.552,762.916 -808.552,898.916 -808.552,898.916 -808.552,904.916 -802.552,910.916 -796.552,910.916"/>
<text text-anchor="middle" x="-723.169" y="766.116" font-family="Times,serif" font-size="14.00">Admin::RequestsController</text>
<polyline fill="none" stroke="black" points="-808.552,772.916 -637.786,772.916 "/>
<text text-anchor="start" x="-800.552" y="788.116" font-family="Times,serif" font-size="14.00">create</text>
<text text-anchor="start" x="-800.552" y="802.116" font-family="Times,serif" font-size="14.00">destroy</text>
<text text-anchor="start" x="-800.552" y="816.116" font-family="Times,serif" font-size="14.00">index</text>
<text text-anchor="start" x="-800.552" y="830.116" font-family="Times,serif" font-size="14.00">pdf</text>
<text text-anchor="start" x="-800.552" y="844.116" font-family="Times,serif" font-size="14.00">pending</text>
<text text-anchor="start" x="-800.552" y="858.116" font-family="Times,serif" font-size="14.00">sent</text>
<polyline fill="none" stroke="black" points="-808.552,864.916 -637.786,864.916 "/>
<polyline fill="none" stroke="black" points="-808.552,888.916 -637.786,888.916 "/>
<text text-anchor="start" x="-800.552" y="904.116" font-family="Times,serif" font-size="14.00">_layout</text>
</g>
<!-- Admin::ApplicationController&#45;&gt;Admin::RequestsController -->
<g id="edge3" class="edge"><title>Admin::ApplicationController&#45;&gt;Admin::RequestsController</title>
<path fill="none" stroke="black" d="M-328.08,861.358C-417.37,854.478 -550.928,844.187 -637.561,837.512"/>
</g>
<!-- ApplicationController -->
<g id="node5" class="node"><title>ApplicationController</title>
<path fill="none" stroke="black" d="M-171.054,-50.3407C-171.054,-50.3407 -55.4122,-50.3407 -55.4122,-50.3407 -49.4122,-50.3407 -43.4122,-56.3407 -43.4122,-62.3407 -43.4122,-62.3407 -43.4122,-130.341 -43.4122,-130.341 -43.4122,-136.341 -49.4122,-142.341 -55.4122,-142.341 -55.4122,-142.341 -171.054,-142.341 -171.054,-142.341 -177.054,-142.341 -183.054,-136.341 -183.054,-130.341 -183.054,-130.341 -183.054,-62.3407 -183.054,-62.3407 -183.054,-56.3407 -177.054,-50.3407 -171.054,-50.3407"/>
<text text-anchor="middle" x="-113.233" y="-127.141" font-family="Times,serif" font-size="14.00">ApplicationController</text>
<polyline fill="none" stroke="black" points="-183.054,-120.341 -43.4122,-120.341 "/>
<polyline fill="none" stroke="black" points="-183.054,-96.3407 -43.4122,-96.3407 "/>
<polyline fill="none" stroke="black" points="-183.054,-72.3407 -43.4122,-72.3407 "/>
<text text-anchor="start" x="-175.054" y="-57.1407" font-family="Times,serif" font-size="14.00">_layout</text>
</g>
<!-- ApplicationController&#45;&gt;Admin::ApplicationController -->
<g id="edge1" class="edge"><title>ApplicationController&#45;&gt;Admin::ApplicationController</title>
<path fill="none" stroke="black" d="M-140.706,-50.2168C-167.639,-2.18335 -206.954,76.1842 -223.268,149.744 -277.314,393.439 -253.939,695.083 -241.127,815.391"/>
</g>
<!-- DashboardController -->
<g id="node6" class="node"><title>DashboardController</title>
<path fill="none" stroke="black" d="M101.921,166.933C101.921,166.933 212.115,166.933 212.115,166.933 218.115,166.933 224.115,160.933 224.115,154.933 224.115,154.933 224.115,88.9327 224.115,88.9327 224.115,82.9327 218.115,76.9327 212.115,76.9327 212.115,76.9327 101.921,76.9327 101.921,76.9327 95.9214,76.9327 89.9214,82.9327 89.9214,88.9327 89.9214,88.9327 89.9214,154.933 89.9214,154.933 89.9214,160.933 95.9214,166.933 101.921,166.933"/>
<text text-anchor="middle" x="157.018" y="92.1327" font-family="Times,serif" font-size="14.00">DashboardController</text>
<polyline fill="none" stroke="black" points="89.9214,98.9327 224.115,98.9327 "/>
<text text-anchor="start" x="97.9214" y="114.133" font-family="Times,serif" font-size="14.00">index</text>
<polyline fill="none" stroke="black" points="89.9214,120.933 224.115,120.933 "/>
<polyline fill="none" stroke="black" points="89.9214,144.933 224.115,144.933 "/>
<text text-anchor="start" x="97.9214" y="160.133" font-family="Times,serif" font-size="14.00">_layout</text>
</g>
<!-- ApplicationController&#45;&gt;DashboardController -->
<g id="edge4" class="edge"><title>ApplicationController&#45;&gt;DashboardController</title>
<path fill="none" stroke="black" d="M-56.2499,-50.3172C-9.94661,-12.9195 55.0083,39.5426 101.039,76.7203"/>
</g>
<!-- ErrorsController -->
<g id="node7" class="node"><title>ErrorsController</title>
<path fill="none" stroke="black" d="M-467.967,144.876C-467.967,144.876 -383.436,144.876 -383.436,144.876 -377.436,144.876 -371.436,138.876 -371.436,132.876 -371.436,132.876 -371.436,52.8765 -371.436,52.8765 -371.436,46.8765 -377.436,40.8765 -383.436,40.8765 -383.436,40.8765 -467.967,40.8765 -467.967,40.8765 -473.967,40.8765 -479.967,46.8765 -479.967,52.8765 -479.967,52.8765 -479.967,132.876 -479.967,132.876 -479.967,138.876 -473.967,144.876 -467.967,144.876"/>
<text text-anchor="middle" x="-425.702" y="56.0765" font-family="Times,serif" font-size="14.00">ErrorsController</text>
<polyline fill="none" stroke="black" points="-479.967,62.8765 -371.436,62.8765 "/>
<text text-anchor="start" x="-471.967" y="78.0765" font-family="Times,serif" font-size="14.00">routing</text>
<polyline fill="none" stroke="black" points="-479.967,84.8765 -371.436,84.8765 "/>
<polyline fill="none" stroke="black" points="-479.967,108.876 -371.436,108.876 "/>
<text text-anchor="start" x="-471.967" y="124.076" font-family="Times,serif" font-size="14.00">_layout</text>
<text text-anchor="start" x="-471.967" y="138.076" font-family="Times,serif" font-size="14.00">render_404</text>
</g>
<!-- ApplicationController&#45;&gt;ErrorsController -->
<g id="edge5" class="edge"><title>ApplicationController&#45;&gt;ErrorsController</title>
<path fill="none" stroke="black" d="M-183.357,-53.8767C-240.216,-19.4453 -319.204,28.3861 -371.346,59.9613"/>
</g>
<!-- HomepageController -->
<g id="node8" class="node"><title>HomepageController</title>
<path fill="none" stroke="black" d="M-827.799,397.068C-827.799,397.068 -717.612,397.068 -717.612,397.068 -711.612,397.068 -705.612,391.068 -705.612,385.068 -705.612,385.068 -705.612,319.068 -705.612,319.068 -705.612,313.068 -711.612,307.068 -717.612,307.068 -717.612,307.068 -827.799,307.068 -827.799,307.068 -833.799,307.068 -839.799,313.068 -839.799,319.068 -839.799,319.068 -839.799,385.068 -839.799,385.068 -839.799,391.068 -833.799,397.068 -827.799,397.068"/>
<text text-anchor="middle" x="-772.705" y="322.268" font-family="Times,serif" font-size="14.00">HomepageController</text>
<polyline fill="none" stroke="black" points="-839.799,329.068 -705.612,329.068 "/>
<text text-anchor="start" x="-831.799" y="344.268" font-family="Times,serif" font-size="14.00">index</text>
<polyline fill="none" stroke="black" points="-839.799,351.068 -705.612,351.068 "/>
<polyline fill="none" stroke="black" points="-839.799,375.068 -705.612,375.068 "/>
<text text-anchor="start" x="-831.799" y="390.268" font-family="Times,serif" font-size="14.00">_layout</text>
</g>
<!-- ApplicationController&#45;&gt;HomepageController -->
<g id="edge6" class="edge"><title>ApplicationController&#45;&gt;HomepageController</title>
<path fill="none" stroke="black" d="M-153.523,-50.1733C-201.089,2.42707 -284.379,88.7578 -368.236,148.076 -478.349,225.968 -622.452,291.048 -705.585,325.524"/>
</g>
<!-- JoinController -->
<g id="node9" class="node"><title>JoinController</title>
<path fill="none" stroke="black" d="M331.626,473.419C331.626,473.419 427.84,473.419 427.84,473.419 433.84,473.419 439.84,467.419 439.84,461.419 439.84,461.419 439.84,353.419 439.84,353.419 439.84,347.419 433.84,341.419 427.84,341.419 427.84,341.419 331.626,341.419 331.626,341.419 325.626,341.419 319.626,347.419 319.626,353.419 319.626,353.419 319.626,461.419 319.626,461.419 319.626,467.419 325.626,473.419 331.626,473.419"/>
<text text-anchor="middle" x="379.733" y="356.619" font-family="Times,serif" font-size="14.00">JoinController</text>
<polyline fill="none" stroke="black" points="319.626,363.419 439.84,363.419 "/>
<text text-anchor="start" x="327.626" y="378.619" font-family="Times,serif" font-size="14.00">create</text>
<text text-anchor="start" x="327.626" y="392.619" font-family="Times,serif" font-size="14.00">new</text>
<polyline fill="none" stroke="black" points="319.626,399.419 439.84,399.419 "/>
<polyline fill="none" stroke="black" points="319.626,423.419 439.84,423.419 "/>
<text text-anchor="start" x="327.626" y="438.619" font-family="Times,serif" font-size="14.00">_layout</text>
<text text-anchor="start" x="327.626" y="452.619" font-family="Times,serif" font-size="14.00">find_by_user_type</text>
<text text-anchor="start" x="327.626" y="466.619" font-family="Times,serif" font-size="14.00">request_params</text>
</g>
<!-- ApplicationController&#45;&gt;JoinController -->
<g id="edge7" class="edge"><title>ApplicationController&#45;&gt;JoinController</title>
<path fill="none" stroke="black" d="M-83.7975,-50.2981C-47.2965,5.0549 18.4911,99.3329 86.7214,170.133 160.08,246.254 257.494,320.767 319.417,365.407"/>
</g>
<!-- PostsController -->
<g id="node10" class="node"><title>PostsController</title>
<path fill="none" stroke="black" d="M-416.194,524.714C-416.194,524.714 -337.077,524.714 -337.077,524.714 -331.077,524.714 -325.077,518.714 -325.077,512.714 -325.077,512.714 -325.077,418.714 -325.077,418.714 -325.077,412.714 -331.077,406.714 -337.077,406.714 -337.077,406.714 -416.194,406.714 -416.194,406.714 -422.194,406.714 -428.194,412.714 -428.194,418.714 -428.194,418.714 -428.194,512.714 -428.194,512.714 -428.194,518.714 -422.194,524.714 -416.194,524.714"/>
<text text-anchor="middle" x="-376.635" y="421.914" font-family="Times,serif" font-size="14.00">PostsController</text>
<polyline fill="none" stroke="black" points="-428.194,428.714 -325.077,428.714 "/>
<text text-anchor="start" x="-420.194" y="443.914" font-family="Times,serif" font-size="14.00">create</text>
<text text-anchor="start" x="-420.194" y="457.914" font-family="Times,serif" font-size="14.00">destroy</text>
<polyline fill="none" stroke="black" points="-428.194,464.714 -325.077,464.714 "/>
<polyline fill="none" stroke="black" points="-428.194,488.714 -325.077,488.714 "/>
<text text-anchor="start" x="-420.194" y="503.914" font-family="Times,serif" font-size="14.00">_layout</text>
<text text-anchor="start" x="-420.194" y="517.914" font-family="Times,serif" font-size="14.00">post_params</text>
</g>
<!-- ApplicationController&#45;&gt;PostsController -->
<g id="edge8" class="edge"><title>ApplicationController&#45;&gt;PostsController</title>
<path fill="none" stroke="black" d="M-135.012,-49.8672C-182.651,51.7862 -296.055,293.77 -348.787,406.291"/>
</g>
<!-- ProjectsController -->
<g id="node11" class="node"><title>ProjectsController</title>
<path fill="none" stroke="black" d="M-32.1929,539.839C-32.1929,539.839 62.4555,539.839 62.4555,539.839 68.4555,539.839 74.4555,533.839 74.4555,527.839 74.4555,527.839 74.4555,447.839 74.4555,447.839 74.4555,441.839 68.4555,435.839 62.4555,435.839 62.4555,435.839 -32.1929,435.839 -32.1929,435.839 -38.1929,435.839 -44.1929,441.839 -44.1929,447.839 -44.1929,447.839 -44.1929,527.839 -44.1929,527.839 -44.1929,533.839 -38.1929,539.839 -32.1929,539.839"/>
<text text-anchor="middle" x="15.1313" y="451.039" font-family="Times,serif" font-size="14.00">ProjectsController</text>
<polyline fill="none" stroke="black" points="-44.1929,457.839 74.4555,457.839 "/>
<text text-anchor="start" x="-36.1929" y="473.039" font-family="Times,serif" font-size="14.00">index</text>
<text text-anchor="start" x="-36.1929" y="487.039" font-family="Times,serif" font-size="14.00">show</text>
<polyline fill="none" stroke="black" points="-44.1929,493.839 74.4555,493.839 "/>
<polyline fill="none" stroke="black" points="-44.1929,517.839 74.4555,517.839 "/>
<text text-anchor="start" x="-36.1929" y="533.039" font-family="Times,serif" font-size="14.00">_layout</text>
</g>
<!-- ApplicationController&#45;&gt;ProjectsController -->
<g id="edge9" class="edge"><title>ApplicationController&#45;&gt;ProjectsController</title>
<path fill="none" stroke="black" d="M-96.4148,-50.2101C-79.1014,-1.19566 -52.4081,78.8507 -36.0261,149.744 -12.9032,249.809 2.33024,369.031 9.77754,435.821"/>
</g>
<!-- RequestAcceptantsController -->
<g id="node12" class="node"><title>RequestAcceptantsController</title>
<path fill="none" stroke="black" d="M-208.068,242.944C-208.068,242.944 -51.2261,242.944 -51.2261,242.944 -45.2261,242.944 -39.2261,236.944 -39.2261,230.944 -39.2261,230.944 -39.2261,164.944 -39.2261,164.944 -39.2261,158.944 -45.2261,152.944 -51.2261,152.944 -51.2261,152.944 -208.068,152.944 -208.068,152.944 -214.068,152.944 -220.068,158.944 -220.068,164.944 -220.068,164.944 -220.068,230.944 -220.068,230.944 -220.068,236.944 -214.068,242.944 -208.068,242.944"/>
<text text-anchor="middle" x="-129.647" y="168.144" font-family="Times,serif" font-size="14.00">RequestAcceptantsController</text>
<polyline fill="none" stroke="black" points="-220.068,174.944 -39.2261,174.944 "/>
<text text-anchor="start" x="-212.068" y="190.144" font-family="Times,serif" font-size="14.00">edit</text>
<polyline fill="none" stroke="black" points="-220.068,196.944 -39.2261,196.944 "/>
<polyline fill="none" stroke="black" points="-220.068,220.944 -39.2261,220.944 "/>
<text text-anchor="start" x="-212.068" y="236.144" font-family="Times,serif" font-size="14.00">_layout</text>
</g>
<!-- ApplicationController&#45;&gt;RequestAcceptantsController -->
<g id="edge10" class="edge"><title>ApplicationController&#45;&gt;RequestAcceptantsController</title>
<path fill="none" stroke="black" d="M-115.816,-50.035C-118.912,5.4846 -124.067,97.9085 -127.133,152.874"/>
</g>
<!-- SlackController -->
<g id="node13" class="node"><title>SlackController</title>
<path fill="none" stroke="black" d="M-811.157,-3.34451C-811.157,-3.34451 -730.508,-3.34451 -730.508,-3.34451 -724.508,-3.34451 -718.508,-9.34451 -718.508,-15.3445 -718.508,-15.3445 -718.508,-95.3445 -718.508,-95.3445 -718.508,-101.345 -724.508,-107.345 -730.508,-107.345 -730.508,-107.345 -811.157,-107.345 -811.157,-107.345 -817.157,-107.345 -823.157,-101.345 -823.157,-95.3445 -823.157,-95.3445 -823.157,-15.3445 -823.157,-15.3445 -823.157,-9.34451 -817.157,-3.34451 -811.157,-3.34451"/>
<text text-anchor="middle" x="-770.832" y="-92.1445" font-family="Times,serif" font-size="14.00">SlackController</text>
<polyline fill="none" stroke="black" points="-823.157,-85.3445 -718.508,-85.3445 "/>
<text text-anchor="start" x="-815.157" y="-70.1445" font-family="Times,serif" font-size="14.00">new</text>
<text text-anchor="start" x="-815.157" y="-56.1445" font-family="Times,serif" font-size="14.00">notifier</text>
<polyline fill="none" stroke="black" points="-823.157,-49.3445 -718.508,-49.3445 "/>
<polyline fill="none" stroke="black" points="-823.157,-25.3445 -718.508,-25.3445 "/>
<text text-anchor="start" x="-815.157" y="-10.1445" font-family="Times,serif" font-size="14.00">_layout</text>
</g>
<!-- ApplicationController&#45;&gt;SlackController -->
<g id="edge11" class="edge"><title>ApplicationController&#45;&gt;SlackController</title>
<path fill="none" stroke="black" d="M-183.296,-91.9728C-315.838,-83.7098 -600.525,-65.9618 -718.234,-58.6236"/>
</g>
<!-- UsersController -->
<g id="node20" class="node"><title>UsersController</title>
<path fill="none" stroke="black" d="M-810.228,-394.75C-810.228,-394.75 -728.8,-394.75 -728.8,-394.75 -722.8,-394.75 -716.8,-400.75 -716.8,-406.75 -716.8,-406.75 -716.8,-486.75 -716.8,-486.75 -716.8,-492.75 -722.8,-498.75 -728.8,-498.75 -728.8,-498.75 -810.228,-498.75 -810.228,-498.75 -816.228,-498.75 -822.228,-492.75 -822.228,-486.75 -822.228,-486.75 -822.228,-406.75 -822.228,-406.75 -822.228,-400.75 -816.228,-394.75 -810.228,-394.75"/>
<text text-anchor="middle" x="-769.514" y="-483.55" font-family="Times,serif" font-size="14.00">UsersController</text>
<polyline fill="none" stroke="black" points="-822.228,-476.75 -716.8,-476.75 "/>
<text text-anchor="start" x="-814.228" y="-461.55" font-family="Times,serif" font-size="14.00">index</text>
<text text-anchor="start" x="-814.228" y="-447.55" font-family="Times,serif" font-size="14.00">show</text>
<polyline fill="none" stroke="black" points="-822.228,-440.75 -716.8,-440.75 "/>
<polyline fill="none" stroke="black" points="-822.228,-416.75 -716.8,-416.75 "/>
<text text-anchor="start" x="-814.228" y="-401.55" font-family="Times,serif" font-size="14.00">_layout</text>
</g>
<!-- ApplicationController&#45;&gt;UsersController -->
<g id="edge18" class="edge"><title>ApplicationController&#45;&gt;UsersController</title>
<path fill="none" stroke="black" d="M-183.268,-86.7854C-271.344,-78.262 -424.436,-75.3024 -535.275,-137.271 -640.114,-195.885 -712.52,-322.915 -746.83,-394.67"/>
</g>
<!-- DeviseController -->
<g id="node27" class="node"><title>DeviseController</title>
<path fill="none" stroke="black" d="M39.418,-34.4362C39.418,-34.4362 210.294,-34.4362 210.294,-34.4362 216.294,-34.4362 222.294,-40.4362 222.294,-46.4362 222.294,-46.4362 222.294,-390.436 222.294,-390.436 222.294,-396.436 216.294,-402.436 210.294,-402.436 210.294,-402.436 39.418,-402.436 39.418,-402.436 33.418,-402.436 27.418,-396.436 27.418,-390.436 27.418,-390.436 27.418,-46.4362 27.418,-46.4362 27.418,-40.4362 33.418,-34.4362 39.418,-34.4362"/>
<text text-anchor="middle" x="124.856" y="-387.236" font-family="Times,serif" font-size="14.00">DeviseController</text>
<polyline fill="none" stroke="black" points="27.418,-380.436 222.294,-380.436 "/>
<text text-anchor="start" x="35.418" y="-365.236" font-family="Times,serif" font-size="14.00">_prefixes</text>
<polyline fill="none" stroke="black" points="27.418,-358.436 222.294,-358.436 "/>
<text text-anchor="start" x="35.418" y="-343.236" font-family="Times,serif" font-size="14.00">unknown_action!</text>
<text text-anchor="start" x="35.418" y="-329.236" font-family="Times,serif" font-size="14.00">clean_up_passwords</text>
<text text-anchor="start" x="35.418" y="-315.236" font-family="Times,serif" font-size="14.00">devise_i18n_options</text>
<text text-anchor="start" x="35.418" y="-301.236" font-family="Times,serif" font-size="14.00">devise_mapping</text>
<text text-anchor="start" x="35.418" y="-287.236" font-family="Times,serif" font-size="14.00">find_message</text>
<text text-anchor="start" x="35.418" y="-273.236" font-family="Times,serif" font-size="14.00">navigational_formats</text>
<text text-anchor="start" x="35.418" y="-259.236" font-family="Times,serif" font-size="14.00">require_no_authentication</text>
<text text-anchor="start" x="35.418" y="-245.236" font-family="Times,serif" font-size="14.00">resource</text>
<text text-anchor="start" x="35.418" y="-231.236" font-family="Times,serif" font-size="14.00">resource=</text>
<text text-anchor="start" x="35.418" y="-217.236" font-family="Times,serif" font-size="14.00">resource_class</text>
<text text-anchor="start" x="35.418" y="-203.236" font-family="Times,serif" font-size="14.00">resource_name</text>
<text text-anchor="start" x="35.418" y="-189.236" font-family="Times,serif" font-size="14.00">resource_params</text>
<text text-anchor="start" x="35.418" y="-175.236" font-family="Times,serif" font-size="14.00">respond_with_navigational</text>
<text text-anchor="start" x="35.418" y="-161.236" font-family="Times,serif" font-size="14.00">scope_name</text>
<text text-anchor="start" x="35.418" y="-147.236" font-family="Times,serif" font-size="14.00">set_flash_message</text>
<text text-anchor="start" x="35.418" y="-133.236" font-family="Times,serif" font-size="14.00">set_flash_message!</text>
<text text-anchor="start" x="35.418" y="-119.236" font-family="Times,serif" font-size="14.00">set_minimum_password_length</text>
<text text-anchor="start" x="35.418" y="-105.236" font-family="Times,serif" font-size="14.00">signed_in_resource</text>
<text text-anchor="start" x="35.418" y="-91.2362" font-family="Times,serif" font-size="14.00">successfully_sent?</text>
<text text-anchor="start" x="35.418" y="-77.2362" font-family="Times,serif" font-size="14.00">translation_scope</text>
<text text-anchor="start" x="35.418" y="-63.2362" font-family="Times,serif" font-size="14.00">assert_is_devise_resource!</text>
<polyline fill="none" stroke="black" points="27.418,-56.4362 222.294,-56.4362 "/>
<text text-anchor="start" x="35.418" y="-41.2362" font-family="Times,serif" font-size="14.00">_layout</text>
</g>
<!-- ApplicationController&#45;&gt;DeviseController -->
<g id="edge25" class="edge"><title>ApplicationController&#45;&gt;DeviseController</title>
<path fill="none" stroke="black" d="M-43.4072,-132.148C-21.3158,-143.477 3.52012,-156.213 27.1902,-168.352"/>
</g>
<!-- Users::ConfirmationsController -->
<g id="node14" class="node"><title>Users::ConfirmationsController</title>
<path fill="none" stroke="black" d="M587.657,-834.293C587.657,-834.293 756.982,-834.293 756.982,-834.293 762.982,-834.293 768.982,-840.293 768.982,-846.293 768.982,-846.293 768.982,-914.293 768.982,-914.293 768.982,-920.293 762.982,-926.293 756.982,-926.293 756.982,-926.293 587.657,-926.293 587.657,-926.293 581.657,-926.293 575.657,-920.293 575.657,-914.293 575.657,-914.293 575.657,-846.293 575.657,-846.293 575.657,-840.293 581.657,-834.293 587.657,-834.293"/>
<text text-anchor="middle" x="672.32" y="-911.093" font-family="Times,serif" font-size="14.00">Users::ConfirmationsController</text>
<polyline fill="none" stroke="black" points="575.657,-904.293 768.982,-904.293 "/>
<polyline fill="none" stroke="black" points="575.657,-880.293 768.982,-880.293 "/>
<polyline fill="none" stroke="black" points="575.657,-856.293 768.982,-856.293 "/>
<text text-anchor="start" x="583.657" y="-841.093" font-family="Times,serif" font-size="14.00">_layout</text>
</g>
<!-- Users::OmniauthCallbacksController -->
<g id="node15" class="node"><title>Users::OmniauthCallbacksController</title>
<path fill="none" stroke="black" d="M110.459,-887.468C110.459,-887.468 310.866,-887.468 310.866,-887.468 316.866,-887.468 322.866,-893.468 322.866,-899.468 322.866,-899.468 322.866,-967.468 322.866,-967.468 322.866,-973.468 316.866,-979.468 310.866,-979.468 310.866,-979.468 110.459,-979.468 110.459,-979.468 104.459,-979.468 98.4588,-973.468 98.4588,-967.468 98.4588,-967.468 98.4588,-899.468 98.4588,-899.468 98.4588,-893.468 104.459,-887.468 110.459,-887.468"/>
<text text-anchor="middle" x="210.662" y="-964.268" font-family="Times,serif" font-size="14.00">Users::OmniauthCallbacksController</text>
<polyline fill="none" stroke="black" points="98.4588,-957.468 322.866,-957.468 "/>
<polyline fill="none" stroke="black" points="98.4588,-933.468 322.866,-933.468 "/>
<polyline fill="none" stroke="black" points="98.4588,-909.468 322.866,-909.468 "/>
<text text-anchor="start" x="106.459" y="-894.268" font-family="Times,serif" font-size="14.00">_layout</text>
</g>
<!-- Users::PasswordsController -->
<g id="node16" class="node"><title>Users::PasswordsController</title>
<path fill="none" stroke="black" d="M-305.298,-903.437C-305.298,-903.437 -156.973,-903.437 -156.973,-903.437 -150.973,-903.437 -144.973,-909.437 -144.973,-915.437 -144.973,-915.437 -144.973,-983.437 -144.973,-983.437 -144.973,-989.437 -150.973,-995.437 -156.973,-995.437 -156.973,-995.437 -305.298,-995.437 -305.298,-995.437 -311.298,-995.437 -317.298,-989.437 -317.298,-983.437 -317.298,-983.437 -317.298,-915.437 -317.298,-915.437 -317.298,-909.437 -311.298,-903.437 -305.298,-903.437"/>
<text text-anchor="middle" x="-231.135" y="-980.237" font-family="Times,serif" font-size="14.00">Users::PasswordsController</text>
<polyline fill="none" stroke="black" points="-317.298,-973.437 -144.973,-973.437 "/>
<polyline fill="none" stroke="black" points="-317.298,-949.437 -144.973,-949.437 "/>
<polyline fill="none" stroke="black" points="-317.298,-925.437 -144.973,-925.437 "/>
<text text-anchor="start" x="-309.298" y="-910.237" font-family="Times,serif" font-size="14.00">_layout</text>
</g>
<!-- Users::RegistrationsController -->
<g id="node17" class="node"><title>Users::RegistrationsController</title>
<path fill="none" stroke="black" d="M639.387,-250.263C639.387,-250.263 802.477,-250.263 802.477,-250.263 808.477,-250.263 814.477,-256.263 814.477,-262.263 814.477,-262.263 814.477,-384.263 814.477,-384.263 814.477,-390.263 808.477,-396.263 802.477,-396.263 802.477,-396.263 639.387,-396.263 639.387,-396.263 633.387,-396.263 627.387,-390.263 627.387,-384.263 627.387,-384.263 627.387,-262.263 627.387,-262.263 627.387,-256.263 633.387,-250.263 639.387,-250.263"/>
<text text-anchor="middle" x="720.932" y="-381.063" font-family="Times,serif" font-size="14.00">Users::RegistrationsController</text>
<polyline fill="none" stroke="black" points="627.387,-374.263 814.477,-374.263 "/>
<text text-anchor="start" x="635.387" y="-359.063" font-family="Times,serif" font-size="14.00">configure_sign_up_params</text>
<text text-anchor="start" x="635.387" y="-345.063" font-family="Times,serif" font-size="14.00">new</text>
<polyline fill="none" stroke="black" points="627.387,-338.263 814.477,-338.263 "/>
<polyline fill="none" stroke="black" points="627.387,-314.263 814.477,-314.263 "/>
<text text-anchor="start" x="635.387" y="-299.063" font-family="Times,serif" font-size="14.00">_layout</text>
<text text-anchor="start" x="635.387" y="-285.063" font-family="Times,serif" font-size="14.00">find_user_type_id</text>
<text text-anchor="start" x="635.387" y="-271.063" font-family="Times,serif" font-size="14.00">is_from_accepted_request</text>
<text text-anchor="start" x="635.387" y="-257.063" font-family="Times,serif" font-size="14.00">redirect_from_email_params</text>
</g>
<!-- Users::SessionsController -->
<g id="node18" class="node"><title>Users::SessionsController</title>
<path fill="none" stroke="black" d="M611.488,837.299C611.488,837.299 748.929,837.299 748.929,837.299 754.929,837.299 760.929,831.299 760.929,825.299 760.929,825.299 760.929,757.299 760.929,757.299 760.929,751.299 754.929,745.299 748.929,745.299 748.929,745.299 611.488,745.299 611.488,745.299 605.488,745.299 599.488,751.299 599.488,757.299 599.488,757.299 599.488,825.299 599.488,825.299 599.488,831.299 605.488,837.299 611.488,837.299"/>
<text text-anchor="middle" x="680.209" y="760.499" font-family="Times,serif" font-size="14.00">Users::SessionsController</text>
<polyline fill="none" stroke="black" points="599.488,767.299 760.929,767.299 "/>
<polyline fill="none" stroke="black" points="599.488,791.299 760.929,791.299 "/>
<polyline fill="none" stroke="black" points="599.488,815.299 760.929,815.299 "/>
<text text-anchor="start" x="607.488" y="830.499" font-family="Times,serif" font-size="14.00">_layout</text>
</g>
<!-- Users::UnlocksController -->
<g id="node19" class="node"><title>Users::UnlocksController</title>
<path fill="none" stroke="black" d="M-790.538,-871.089C-790.538,-871.089 -654.669,-871.089 -654.669,-871.089 -648.669,-871.089 -642.669,-877.089 -642.669,-883.089 -642.669,-883.089 -642.669,-951.089 -642.669,-951.089 -642.669,-957.089 -648.669,-963.089 -654.669,-963.089 -654.669,-963.089 -790.538,-963.089 -790.538,-963.089 -796.538,-963.089 -802.538,-957.089 -802.538,-951.089 -802.538,-951.089 -802.538,-883.089 -802.538,-883.089 -802.538,-877.089 -796.538,-871.089 -790.538,-871.089"/>
<text text-anchor="middle" x="-722.604" y="-947.889" font-family="Times,serif" font-size="14.00">Users::UnlocksController</text>
<polyline fill="none" stroke="black" points="-802.538,-941.089 -642.669,-941.089 "/>
<polyline fill="none" stroke="black" points="-802.538,-917.089 -642.669,-917.089 "/>
<polyline fill="none" stroke="black" points="-802.538,-893.089 -642.669,-893.089 "/>
<text text-anchor="start" x="-794.538" y="-877.889" font-family="Times,serif" font-size="14.00">_layout</text>
</g>
<!-- Devise::ConfirmationsController -->
<g id="node21" class="node"><title>Devise::ConfirmationsController</title>
<path fill="none" stroke="black" d="M209.772,-426.565C209.772,-426.565 494.145,-426.565 494.145,-426.565 500.145,-426.565 506.145,-432.565 506.145,-438.565 506.145,-438.565 506.145,-558.565 506.145,-558.565 506.145,-564.565 500.145,-570.565 494.145,-570.565 494.145,-570.565 209.772,-570.565 209.772,-570.565 203.772,-570.565 197.772,-564.565 197.772,-558.565 197.772,-558.565 197.772,-438.565 197.772,-438.565 197.772,-432.565 203.772,-426.565 209.772,-426.565"/>
<text text-anchor="middle" x="351.958" y="-555.365" font-family="Times,serif" font-size="14.00">Devise::ConfirmationsController</text>
<polyline fill="none" stroke="black" points="197.772,-548.565 506.145,-548.565 "/>
<text text-anchor="start" x="205.772" y="-533.365" font-family="Times,serif" font-size="14.00">create</text>
<text text-anchor="start" x="205.772" y="-519.365" font-family="Times,serif" font-size="14.00">new</text>
<text text-anchor="start" x="205.772" y="-505.365" font-family="Times,serif" font-size="14.00">show</text>
<polyline fill="none" stroke="black" points="197.772,-498.565 506.145,-498.565 "/>
<text text-anchor="start" x="205.772" y="-483.365" font-family="Times,serif" font-size="14.00">after_confirmation_path_for</text>
<text text-anchor="start" x="205.772" y="-469.365" font-family="Times,serif" font-size="14.00">after_resending_confirmation_instructions_path_for</text>
<text text-anchor="start" x="205.772" y="-455.365" font-family="Times,serif" font-size="14.00">translation_scope</text>
<polyline fill="none" stroke="black" points="197.772,-448.565 506.145,-448.565 "/>
<text text-anchor="start" x="205.772" y="-433.365" font-family="Times,serif" font-size="14.00">_layout</text>
</g>
<!-- Devise::ConfirmationsController&#45;&gt;Users::ConfirmationsController -->
<g id="edge12" class="edge"><title>Devise::ConfirmationsController&#45;&gt;Users::ConfirmationsController</title>
<path fill="none" stroke="black" d="M412.593,-570.814C477.533,-648.194 578.641,-768.669 633.588,-834.142"/>
</g>
<!-- Devise::OmniauthCallbacksController -->
<g id="node22" class="node"><title>Devise::OmniauthCallbacksController</title>
<path fill="none" stroke="black" d="M-131.995,-446.574C-131.995,-446.574 75.4051,-446.574 75.4051,-446.574 81.4051,-446.574 87.4051,-452.574 87.4051,-458.574 87.4051,-458.574 87.4051,-578.574 87.4051,-578.574 87.4051,-584.574 81.4051,-590.574 75.4051,-590.574 75.4051,-590.574 -131.995,-590.574 -131.995,-590.574 -137.995,-590.574 -143.995,-584.574 -143.995,-578.574 -143.995,-578.574 -143.995,-458.574 -143.995,-458.574 -143.995,-452.574 -137.995,-446.574 -131.995,-446.574"/>
<text text-anchor="middle" x="-28.2951" y="-575.374" font-family="Times,serif" font-size="14.00">Devise::OmniauthCallbacksController</text>
<polyline fill="none" stroke="black" points="-143.995,-568.574 87.4051,-568.574 "/>
<text text-anchor="start" x="-135.995" y="-553.374" font-family="Times,serif" font-size="14.00">failure</text>
<text text-anchor="start" x="-135.995" y="-539.374" font-family="Times,serif" font-size="14.00">passthru</text>
<polyline fill="none" stroke="black" points="-143.995,-532.574 87.4051,-532.574 "/>
<text text-anchor="start" x="-135.995" y="-517.374" font-family="Times,serif" font-size="14.00">after_omniauth_failure_path_for</text>
<text text-anchor="start" x="-135.995" y="-503.374" font-family="Times,serif" font-size="14.00">failed_strategy</text>
<text text-anchor="start" x="-135.995" y="-489.374" font-family="Times,serif" font-size="14.00">failure_message</text>
<text text-anchor="start" x="-135.995" y="-475.374" font-family="Times,serif" font-size="14.00">translation_scope</text>
<polyline fill="none" stroke="black" points="-143.995,-468.574 87.4051,-468.574 "/>
<text text-anchor="start" x="-135.995" y="-453.374" font-family="Times,serif" font-size="14.00">_layout</text>
</g>
<!-- Devise::OmniauthCallbacksController&#45;&gt;Users::OmniauthCallbacksController -->
<g id="edge13" class="edge"><title>Devise::OmniauthCallbacksController&#45;&gt;Users::OmniauthCallbacksController</title>
<path fill="none" stroke="black" d="M13.3281,-590.843C62.469,-676.164 142.732,-815.523 184.123,-887.388"/>
</g>
<!-- Devise::PasswordsController -->
<g id="node23" class="node"><title>Devise::PasswordsController</title>
<path fill="none" stroke="black" d="M-520.075,-140.471C-520.075,-140.471 -231.813,-140.471 -231.813,-140.471 -225.813,-140.471 -219.813,-146.471 -219.813,-152.471 -219.813,-152.471 -219.813,-314.471 -219.813,-314.471 -219.813,-320.471 -225.813,-326.471 -231.813,-326.471 -231.813,-326.471 -520.075,-326.471 -520.075,-326.471 -526.075,-326.471 -532.075,-320.471 -532.075,-314.471 -532.075,-314.471 -532.075,-152.471 -532.075,-152.471 -532.075,-146.471 -526.075,-140.471 -520.075,-140.471"/>
<text text-anchor="middle" x="-375.944" y="-311.271" font-family="Times,serif" font-size="14.00">Devise::PasswordsController</text>
<polyline fill="none" stroke="black" points="-532.075,-304.471 -219.813,-304.471 "/>
<text text-anchor="start" x="-524.075" y="-289.271" font-family="Times,serif" font-size="14.00">create</text>
<text text-anchor="start" x="-524.075" y="-275.271" font-family="Times,serif" font-size="14.00">edit</text>
<text text-anchor="start" x="-524.075" y="-261.271" font-family="Times,serif" font-size="14.00">new</text>
<text text-anchor="start" x="-524.075" y="-247.271" font-family="Times,serif" font-size="14.00">update</text>
<polyline fill="none" stroke="black" points="-532.075,-240.471 -219.813,-240.471 "/>
<text text-anchor="start" x="-524.075" y="-225.271" font-family="Times,serif" font-size="14.00">after_resetting_password_path_for</text>
<text text-anchor="start" x="-524.075" y="-211.271" font-family="Times,serif" font-size="14.00">after_sending_reset_password_instructions_path_for</text>
<text text-anchor="start" x="-524.075" y="-197.271" font-family="Times,serif" font-size="14.00">assert_reset_token_passed</text>
<text text-anchor="start" x="-524.075" y="-183.271" font-family="Times,serif" font-size="14.00">translation_scope</text>
<text text-anchor="start" x="-524.075" y="-169.271" font-family="Times,serif" font-size="14.00">unlockable?</text>
<polyline fill="none" stroke="black" points="-532.075,-162.471 -219.813,-162.471 "/>
<text text-anchor="start" x="-524.075" y="-147.271" font-family="Times,serif" font-size="14.00">_layout</text>
</g>
<!-- Devise::PasswordsController&#45;&gt;Users::PasswordsController -->
<g id="edge14" class="edge"><title>Devise::PasswordsController&#45;&gt;Users::PasswordsController</title>
<path fill="none" stroke="black" d="M-315.542,-326.502C-288.429,-373.472 -259.278,-432.526 -244.567,-489.799 -206.782,-636.905 -217.74,-819.218 -225.861,-903.163"/>
</g>
<!-- Devise::RegistrationsController -->
<g id="node24" class="node"><title>Devise::RegistrationsController</title>
<path fill="none" stroke="black" d="M331.04,86.1415C331.04,86.1415 505.758,86.1415 505.758,86.1415 511.758,86.1415 517.758,80.1415 517.758,74.1415 517.758,74.1415 517.758,-199.859 517.758,-199.859 517.758,-205.859 511.758,-211.859 505.758,-211.859 505.758,-211.859 331.04,-211.859 331.04,-211.859 325.04,-211.859 319.04,-205.859 319.04,-199.859 319.04,-199.859 319.04,74.1415 319.04,74.1415 319.04,80.1415 325.04,86.1415 331.04,86.1415"/>
<text text-anchor="middle" x="418.399" y="-196.659" font-family="Times,serif" font-size="14.00">Devise::RegistrationsController</text>
<polyline fill="none" stroke="black" points="319.04,-189.859 517.758,-189.859 "/>
<text text-anchor="start" x="327.04" y="-174.659" font-family="Times,serif" font-size="14.00">cancel</text>
<text text-anchor="start" x="327.04" y="-160.659" font-family="Times,serif" font-size="14.00">create</text>
<text text-anchor="start" x="327.04" y="-146.659" font-family="Times,serif" font-size="14.00">destroy</text>
<text text-anchor="start" x="327.04" y="-132.659" font-family="Times,serif" font-size="14.00">edit</text>
<text text-anchor="start" x="327.04" y="-118.659" font-family="Times,serif" font-size="14.00">new</text>
<text text-anchor="start" x="327.04" y="-104.659" font-family="Times,serif" font-size="14.00">update</text>
<polyline fill="none" stroke="black" points="319.04,-97.8585 517.758,-97.8585 "/>
<text text-anchor="start" x="327.04" y="-82.6585" font-family="Times,serif" font-size="14.00">update_resource</text>
<text text-anchor="start" x="327.04" y="-68.6585" font-family="Times,serif" font-size="14.00">after_inactive_sign_up_path_for</text>
<text text-anchor="start" x="327.04" y="-54.6585" font-family="Times,serif" font-size="14.00">after_sign_up_path_for</text>
<text text-anchor="start" x="327.04" y="-40.6585" font-family="Times,serif" font-size="14.00">after_update_path_for</text>
<text text-anchor="start" x="327.04" y="-26.6585" font-family="Times,serif" font-size="14.00">authenticate_scope!</text>
<text text-anchor="start" x="327.04" y="-12.6585" font-family="Times,serif" font-size="14.00">build_resource</text>
<text text-anchor="start" x="327.04" y="1.34145" font-family="Times,serif" font-size="14.00">sign_up</text>
<text text-anchor="start" x="327.04" y="15.3415" font-family="Times,serif" font-size="14.00">sign_up_params</text>
<text text-anchor="start" x="327.04" y="29.3415" font-family="Times,serif" font-size="14.00">translation_scope</text>
<text text-anchor="start" x="327.04" y="43.3415" font-family="Times,serif" font-size="14.00">update_needs_confirmation?</text>
<text text-anchor="start" x="327.04" y="57.3415" font-family="Times,serif" font-size="14.00">account_update_params</text>
<polyline fill="none" stroke="black" points="319.04,64.1415 517.758,64.1415 "/>
<text text-anchor="start" x="327.04" y="79.3415" font-family="Times,serif" font-size="14.00">_layout</text>
</g>
<!-- Devise::RegistrationsController&#45;&gt;Users::RegistrationsController -->
<g id="edge15" class="edge"><title>Devise::RegistrationsController&#45;&gt;Users::RegistrationsController</title>
<path fill="none" stroke="black" d="M517.878,-148.486C556.111,-181.394 599.364,-218.624 636.095,-250.24"/>
</g>
<!-- Devise::SessionsController -->
<g id="node25" class="node"><title>Devise::SessionsController</title>
<path fill="none" stroke="black" d="M650.57,312.832C650.57,312.832 795.005,312.832 795.005,312.832 801.005,312.832 807.005,306.832 807.005,300.832 807.005,300.832 807.005,124.832 807.005,124.832 807.005,118.832 801.005,112.832 795.005,112.832 795.005,112.832 650.57,112.832 650.57,112.832 644.57,112.832 638.57,118.832 638.57,124.832 638.57,124.832 638.57,300.832 638.57,300.832 638.57,306.832 644.57,312.832 650.57,312.832"/>
<text text-anchor="middle" x="722.787" y="128.032" font-family="Times,serif" font-size="14.00">Devise::SessionsController</text>
<polyline fill="none" stroke="black" points="638.57,134.832 807.005,134.832 "/>
<text text-anchor="start" x="646.57" y="150.032" font-family="Times,serif" font-size="14.00">create</text>
<text text-anchor="start" x="646.57" y="164.032" font-family="Times,serif" font-size="14.00">destroy</text>
<text text-anchor="start" x="646.57" y="178.032" font-family="Times,serif" font-size="14.00">new</text>
<polyline fill="none" stroke="black" points="638.57,184.832 807.005,184.832 "/>
<text text-anchor="start" x="646.57" y="200.032" font-family="Times,serif" font-size="14.00">auth_options</text>
<text text-anchor="start" x="646.57" y="214.032" font-family="Times,serif" font-size="14.00">serialize_options</text>
<text text-anchor="start" x="646.57" y="228.032" font-family="Times,serif" font-size="14.00">sign_in_params</text>
<text text-anchor="start" x="646.57" y="242.032" font-family="Times,serif" font-size="14.00">translation_scope</text>
<polyline fill="none" stroke="black" points="638.57,248.832 807.005,248.832 "/>
<text text-anchor="start" x="646.57" y="264.032" font-family="Times,serif" font-size="14.00">_layout</text>
<text text-anchor="start" x="646.57" y="278.032" font-family="Times,serif" font-size="14.00">all_signed_out?</text>
<text text-anchor="start" x="646.57" y="292.032" font-family="Times,serif" font-size="14.00">respond_to_on_destroy</text>
<text text-anchor="start" x="646.57" y="306.032" font-family="Times,serif" font-size="14.00">verify_signed_out_user</text>
</g>
<!-- Devise::SessionsController&#45;&gt;Users::SessionsController -->
<g id="edge16" class="edge"><title>Devise::SessionsController&#45;&gt;Users::SessionsController</title>
<path fill="none" stroke="black" d="M715.419,312.933C706.113,439.37 690.486,651.675 683.62,744.96"/>
</g>
<!-- Devise::UnlocksController -->
<g id="node26" class="node"><title>Devise::UnlocksController</title>
<path fill="none" stroke="black" d="M-499.823,-492.999C-499.823,-492.999 -259.767,-492.999 -259.767,-492.999 -253.767,-492.999 -247.767,-498.999 -247.767,-504.999 -247.767,-504.999 -247.767,-624.999 -247.767,-624.999 -247.767,-630.999 -253.767,-636.999 -259.767,-636.999 -259.767,-636.999 -499.823,-636.999 -499.823,-636.999 -505.823,-636.999 -511.823,-630.999 -511.823,-624.999 -511.823,-624.999 -511.823,-504.999 -511.823,-504.999 -511.823,-498.999 -505.823,-492.999 -499.823,-492.999"/>
<text text-anchor="middle" x="-379.795" y="-621.799" font-family="Times,serif" font-size="14.00">Devise::UnlocksController</text>
<polyline fill="none" stroke="black" points="-511.823,-614.999 -247.767,-614.999 "/>
<text text-anchor="start" x="-503.823" y="-599.799" font-family="Times,serif" font-size="14.00">create</text>
<text text-anchor="start" x="-503.823" y="-585.799" font-family="Times,serif" font-size="14.00">new</text>
<text text-anchor="start" x="-503.823" y="-571.799" font-family="Times,serif" font-size="14.00">show</text>
<polyline fill="none" stroke="black" points="-511.823,-564.999 -247.767,-564.999 "/>
<text text-anchor="start" x="-503.823" y="-549.799" font-family="Times,serif" font-size="14.00">after_sending_unlock_instructions_path_for</text>
<text text-anchor="start" x="-503.823" y="-535.799" font-family="Times,serif" font-size="14.00">after_unlock_path_for</text>
<text text-anchor="start" x="-503.823" y="-521.799" font-family="Times,serif" font-size="14.00">translation_scope</text>
<polyline fill="none" stroke="black" points="-511.823,-514.999 -247.767,-514.999 "/>
<text text-anchor="start" x="-503.823" y="-499.799" font-family="Times,serif" font-size="14.00">_layout</text>
</g>
<!-- Devise::UnlocksController&#45;&gt;Users::UnlocksController -->
<g id="edge17" class="edge"><title>Devise::UnlocksController&#45;&gt;Users::UnlocksController</title>
<path fill="none" stroke="black" d="M-449.994,-637.099C-518.162,-707.113 -619.603,-811.3 -677.595,-870.862"/>
</g>
<!-- DeviseController&#45;&gt;Devise::ConfirmationsController -->
<g id="edge19" class="edge"><title>DeviseController&#45;&gt;Devise::ConfirmationsController</title>
<path fill="none" stroke="black" d="M222.486,-338.862C246.65,-368.668 271.796,-399.685 293.428,-426.368"/>
</g>
<!-- DeviseController&#45;&gt;Devise::OmniauthCallbacksController -->
<g id="edge20" class="edge"><title>DeviseController&#45;&gt;Devise::OmniauthCallbacksController</title>
<path fill="none" stroke="black" d="M30.9171,-402.533C23.0536,-417.943 15.448,-432.848 8.45613,-446.551"/>
</g>
<!-- DeviseController&#45;&gt;Devise::PasswordsController -->
<g id="edge21" class="edge"><title>DeviseController&#45;&gt;Devise::PasswordsController</title>
<path fill="none" stroke="black" d="M27.4055,-221.362C-42.7357,-223.468 -138.831,-226.353 -219.631,-228.778"/>
</g>
<!-- DeviseController&#45;&gt;Devise::RegistrationsController -->
<g id="edge22" class="edge"><title>DeviseController&#45;&gt;Devise::RegistrationsController</title>
<path fill="none" stroke="black" d="M222.602,-166.631C253.539,-150.234 287.761,-132.097 318.825,-115.633"/>
</g>
<!-- DeviseController&#45;&gt;Devise::SessionsController -->
<g id="edge23" class="edge"><title>DeviseController&#45;&gt;Devise::SessionsController</title>
<path fill="none" stroke="black" d="M209.419,-34.3061C237.74,11.3816 273.201,56.588 315.84,89.3415 411.278,162.653 550.163,192.672 638.476,204.806"/>
</g>
<!-- DeviseController&#45;&gt;Devise::UnlocksController -->
<g id="edge24" class="edge"><title>DeviseController&#45;&gt;Devise::UnlocksController</title>
<path fill="none" stroke="black" d="M27.2552,-285.462C-59.4185,-344.984 -185.763,-431.75 -274.647,-492.79"/>
</g>
</g>
</svg>
